module gitlab/m3tti/webAnalyzer/worker

go 1.15

require (
	github.com/chromedp/cdproto v0.0.0-20210829223513-dac050cc1a27
	github.com/chromedp/chromedp v0.7.4
	github.com/emirpasic/gods v1.12.0
	github.com/gin-gonic/gin v1.7.4
	github.com/go-playground/validator/v10 v10.9.0 // indirect
	github.com/golang/protobuf v1.5.2 // indirect
	github.com/json-iterator/go v1.1.11 // indirect
	github.com/mattn/go-isatty v0.0.14 // indirect
	github.com/modern-go/concurrent v0.0.0-20180306012644-bacd9c7ef1dd // indirect
	github.com/modern-go/reflect2 v1.0.1 // indirect
	github.com/ugorji/go v1.2.6 // indirect
	golang.org/x/crypto v0.0.0-20210817164053-32db794688a5 // indirect
	golang.org/x/sys v0.0.0-20210908233432-aa78b53d3365 // indirect
	golang.org/x/text v0.3.7 // indirect
	google.golang.org/protobuf v1.27.1 // indirect
	gopkg.in/yaml.v2 v2.4.0 // indirect
)
